{
    "defaultCommandTimeout": 10000,
    "chromeWebSecurity": false,
    "reporter": "junit",
    "reporterOptions" : {
        "mochaFile": "results/test-output-[hash].xml",
        "toConsole": true
    }
}